Latest Update: October 1, 2014
Latest Update: October 15, 2014
Latest Update: October 20, 2014
Latest Update: October 22, 2014
Latest Update: October 23, 2014
Latest Update: October 29, 2014
Latest Update: October 30, 2014
Latest Update: November 4, 2014
Latest Update: November 5, 2014
Latest Update: November 7, 2014
Latest Update: November 10, 2014
Latest Update: November 13, 2014
Latest Update: November 20, 2014
Latest Update: November 26, 2014
Latest Update: December 1, 2014
Latest Update: December 3, 2014
Latest Update: December 8, 2014
Latest Update: December 9, 2014
Latest Update: December 10, 2014
Latest Update: December 12, 2014
Latest Update: December 15, 2014
Latest Update: December 17, 2014
Latest Update: December 22, 2014
Latest Update: December 23, 2014
Latest Update: March 31, 2015
Latest Update: April 29, 2015
Latest Update: May 18, 2015
Latest Update: June 2, 2015
Latest Update: June 4, 2015
Latest Update: June 11, 2015
Latest Update: June 12, 2015
Latest Update: June 17, 2015
Latest Update: July 1, 2015
Latest Update: July 2, 2015
Latest Update: July 3, 2015
Latest Update: July 4, 2015
Latest Update: July 6, 2015
Latest Update: July 8, 2015
Latest Update: July 15, 2015
Latest Update: July 23, 2015
Latest Update: August 18, 2015
Latest Update: August 19, 2015
Latest Update: August 27, 2015
Latest Update: August 28, 2015
Latest Update: September 7, 2015
Latest Update: September 10, 2015
Latest Update: September 24, 2015
Latest Update: October 1, 2015
Latest Update: October 6, 2015
Latest Update: October 9, 2015
Latest Update: October 12, 2015
Latest Update: October 15, 2015
Latest Update: October 19, 2015
Latest Update: October 21, 2015
Latest Update: October 30, 2015
Latest Update: November 3, 2015
Latest Update: November 6, 2015
Latest Update: November 9, 2015
Latest Update: November 11, 2015
Latest Update: November 13, 2015
Latest Update: November 17, 2015
Latest Update: November 18, 2015
Latest Update: November 25, 2015
Latest Update: December 4, 2015
Latest Update: December 7, 2015
Latest Update: December 17, 2015
Latest Update: December 18, 2015
Latest Update: December 22, 2015
Latest Update: December 30, 2015
Latest Update: January 7, 2016
Latest Update: January 12, 2016
Latest Update: January 20, 2016
Latest Update: January 22, 2016
Latest Update: February 2, 2016
Latest Update: February 29, 2016
Latest Update: March 1, 2016
Latest Update: March 3, 2016
Latest Update: March 7, 2016
Latest Update: March 10, 2016
Latest Update: March 17, 2016
Latest Update: March 18, 2016
Latest Update: March 22, 2016
Latest Update: March 24, 2016
Latest Update: March 28, 2016
Latest Update: March 29, 2016
Latest Update: April 28, 2016
Latest Update: May 11, 2016
Latest Update: May 17, 2016
